{"tasks":[{"id":2514,"title":"test deneme ","status":"done","priority":"medium","dueDate":null,"progress":100,"completedAt":"2026-02-15T17:16:01.410324","projectId":128,"projectName":"ToDo","projectColor":"#e2445c","taskUrl":null,"assigneeIds":[],"labelIds":[],"subtaskCount":0,"subtasks":[],"commentCount":0,"attachmentCount":0,"createdBy":1},{"id":2510,"title":"Mey Qlik Ziyaret Raporları Ziyaret Edememe Planlanan Ziyarete Dahil Edilmemesi","status":"done","priority":"high","dueDate":"2026-02-13T09:00:00","progress":100,"completedAt":"2026-02-13T15:46:43.8011924","projectId":81,"projectName":"Quest Takip Konuları","projectColor":"#0086c0","taskUrl":null,"assigneeIds":[60],"labelIds":[118],"subtaskCount":0,"subtasks":[],"commentCount":1,"attachmentCount":0,"createdBy":60},{"id":2502,"title":"Varunada dosya indirme özelliği apiye eklenecek","status":"done","priority":"medium","dueDate":null,"progress":100,"completedAt":"2026-02-13T13:45:34.6296772","projectId":135,"projectName":"Genel Konular","projectColor":"#e2445c","taskUrl":null,"assigneeIds":[47,57,51],"labelIds":[],"subtaskCount":0,"subtasks":[],"commentCount":1,"attachmentCount":2,"createdBy":27},{"id":2501,"title":"sözleşmelere arşivlendi,univera imzasında olanlar filtrelenecek, ","status":"done","priority":"medium","dueDate":null,"progress":100,"completedAt":"2026-02-15T14:16:47.0049695","projectId":25,"projectName":"Univera Connect","projectColor":"#0086c0","taskUrl":null,"assigneeIds":[27],"labelIds":[],"subtaskCount":0,"subtasks":[],"commentCount":0,"attachmentCount":0,"createdBy":27},{"id":2500,"title":"Mey Qlik Ziyaret Edememe REQ Açılması","status":"done","priority":"medium","dueDate":"2026-02-13T09:00:00","progress":100,"completedAt":"2026-02-13T15:46:57.7786754","projectId":81,"projectName":"Quest Takip Konuları","projectColor":"#0086c0","taskUrl":null,"assigneeIds":[60],"labelIds":[118],"subtaskCount":0,"subtasks":[],"commentCount":2,"attachmentCount":0,"createdBy":60}],"totalCount":144,"page":1,"pageSize":5,"hasMore":true}